<svg id="calendar_1_" data-name="calendar (1)" xmlns="http://www.w3.org/2000/svg" width="30.64" height="30.64" viewBox="0 0 30.64 30.64">
  <path id="Path_2670" data-name="Path 2670" d="M27.947,3.591h-2.8a6.172,6.172,0,0,0-.57-2.043A2.4,2.4,0,0,0,22.5,0a2.4,2.4,0,0,0-2.072,1.548,6.172,6.172,0,0,0-.57,2.043h-1.9a6.172,6.172,0,0,0-.57-2.043A2.4,2.4,0,0,0,15.32,0a2.4,2.4,0,0,0-2.072,1.548,6.172,6.172,0,0,0-.57,2.043h-1.9a6.172,6.172,0,0,0-.57-2.043A2.4,2.4,0,0,0,8.139,0,2.4,2.4,0,0,0,6.066,1.548,6.172,6.172,0,0,0,5.5,3.591h-2.8A2.7,2.7,0,0,0,0,6.284V27.947A2.7,2.7,0,0,0,2.693,30.64H27.947a2.7,2.7,0,0,0,2.693-2.693V6.284A2.7,2.7,0,0,0,27.947,3.591Zm-5.912-1.24c.23-.459.436-.555.467-.555s.237.1.467.555a4.211,4.211,0,0,1,.365,1.24H21.669A4.218,4.218,0,0,1,22.035,2.351Zm-7.181,0c.23-.459.436-.555.467-.555s.237.1.467.555a4.218,4.218,0,0,1,.365,1.24H14.488a4.218,4.218,0,0,1,.365-1.24Zm-7.181,0c.23-.459.436-.555.467-.555s.237.1.467.555a4.218,4.218,0,0,1,.365,1.24H7.307a4.218,4.218,0,0,1,.365-1.24ZM2.693,5.386H8.971a4.218,4.218,0,0,1-.365,1.24c-.23.459-.436.555-.467.555a.9.9,0,1,0,0,1.8,2.4,2.4,0,0,0,2.072-1.548,6.172,6.172,0,0,0,.57-2.043h5.371a4.218,4.218,0,0,1-.365,1.24c-.23.459-.436.555-.467.555a.9.9,0,0,0,0,1.8,2.4,2.4,0,0,0,2.072-1.548,6.172,6.172,0,0,0,.57-2.043h5.371a4.218,4.218,0,0,1-.365,1.24c-.23.459-.436.555-.467.555a.9.9,0,0,0,0,1.8,2.4,2.4,0,0,0,2.072-1.548,6.172,6.172,0,0,0,.57-2.043h2.8a.9.9,0,0,1,.9.9v4.548H1.8V6.284a.9.9,0,0,1,.9-.9ZM27.947,28.845H2.693a.9.9,0,0,1-.9-.9V12.627H28.845v15.32A.9.9,0,0,1,27.947,28.845Zm0,0" transform="translate(0 0)"/>
  <path id="Path_2671" data-name="Path 2671" d="M83.441,241H61.9a.9.9,0,0,0-.9.9v10.832a.9.9,0,0,0,.9.9H83.441a.9.9,0,0,0,.9-.9V241.9A.9.9,0,0,0,83.441,241Zm-.9,5.386H78.953V242.8h3.591Zm-10.772,1.8v3.65H68.181v-3.65Zm-3.591-1.8V242.8h3.591v3.591Zm5.386,1.8h3.591v3.65H73.567Zm0-1.8V242.8h3.591v3.591ZM66.386,242.8v3.591H62.8V242.8ZM62.8,248.181h3.591v3.65H62.8Zm16.158,3.65v-3.65h3.591v3.65Zm0,0" transform="translate(-57.35 -226.578)" fill="#ad221f"/>
</svg>
