<svg xmlns="http://www.w3.org/2000/svg" width="36.113" height="36.1" viewBox="0 0 36.113 36.1">
  <g id="Group_291" data-name="Group 291" transform="translate(-518.387 -381.388)">
    <rect id="Rectangle_21" data-name="Rectangle 21" width="1.2" height="1.2" transform="translate(528.638 401.837)" fill="#ad221f"/>
    <rect id="Rectangle_22" data-name="Rectangle 22" width="1.2" height="1.2" transform="translate(531.037 401.837)" fill="#ad221f"/>
    <rect id="Rectangle_23" data-name="Rectangle 23" width="1.2" height="1.2" transform="translate(533.438 401.837)" fill="#ad221f"/>
    <rect id="Rectangle_24" data-name="Rectangle 24" width="1.2" height="1.2" transform="translate(528.638 404.237)" fill="#ad221f"/>
    <rect id="Rectangle_25" data-name="Rectangle 25" width="1.2" height="1.2" transform="translate(531.037 404.237)" fill="#ad221f"/>
    <rect id="Rectangle_26" data-name="Rectangle 26" width="1.2" height="1.2" transform="translate(533.438 404.237)" fill="#ad221f"/>
    <rect id="Rectangle_27" data-name="Rectangle 27" width="1.2" height="1.2" transform="translate(535.837 404.237)" fill="#ad221f"/>
    <rect id="Rectangle_28" data-name="Rectangle 28" width="1.2" height="1.2" transform="translate(538.237 404.237)" fill="#ad221f"/>
    <rect id="Rectangle_29" data-name="Rectangle 29" width="1.2" height="1.2" transform="translate(528.638 406.638)" fill="#ad221f"/>
    <rect id="Rectangle_30" data-name="Rectangle 30" width="1.2" height="1.2" transform="translate(531.037 406.638)" fill="#ad221f"/>
    <rect id="Rectangle_31" data-name="Rectangle 31" width="1.2" height="1.2" transform="translate(533.438 406.638)" fill="#ad221f"/>
    <rect id="Rectangle_32" data-name="Rectangle 32" width="1.2" height="1.2" transform="translate(535.837 406.638)" fill="#ad221f"/>
    <rect id="Rectangle_33" data-name="Rectangle 33" width="1.2" height="1.2" transform="translate(538.237 406.638)" fill="#ad221f"/>
    <rect id="Rectangle_34" data-name="Rectangle 34" width="1.2" height="1.2" transform="translate(528.638 409.038)" fill="#ad221f"/>
    <rect id="Rectangle_35" data-name="Rectangle 35" width="1.2" height="1.2" transform="translate(531.037 409.038)" fill="#ad221f"/>
    <rect id="Rectangle_36" data-name="Rectangle 36" width="1.2" height="1.2" transform="translate(533.438 409.038)" fill="#ad221f"/>
    <rect id="Rectangle_37" data-name="Rectangle 37" width="1.2" height="1.2" transform="translate(535.837 409.038)" fill="#ad221f"/>
    <rect id="Rectangle_38" data-name="Rectangle 38" width="1.2" height="1.2" transform="translate(538.237 409.038)" fill="#ad221f"/>
    <rect id="Rectangle_39" data-name="Rectangle 39" width="1.2" height="1.2" transform="translate(528.638 411.438)" fill="#ad221f"/>
    <rect id="Rectangle_40" data-name="Rectangle 40" width="1.2" height="1.2" transform="translate(531.037 411.438)" fill="#ad221f"/>
    <rect id="Rectangle_41" data-name="Rectangle 41" width="1.2" height="1.2" transform="translate(533.438 411.438)" fill="#ad221f"/>
    <rect id="Rectangle_42" data-name="Rectangle 42" width="1.2" height="1.2" transform="translate(535.837 411.438)" fill="#ad221f"/>
    <rect id="Rectangle_43" data-name="Rectangle 43" width="1.2" height="1.2" transform="translate(538.237 411.438)" fill="#ad221f"/>
    <rect id="Rectangle_44" data-name="Rectangle 44" width="1.2" height="1.2" transform="translate(528.638 413.837)" fill="#ad221f"/>
    <rect id="Rectangle_45" data-name="Rectangle 45" width="1.2" height="1.2" transform="translate(531.037 413.837)" fill="#ad221f"/>
    <rect id="Rectangle_46" data-name="Rectangle 46" width="1.2" height="1.2" transform="translate(533.438 413.837)" fill="#ad221f"/>
    <rect id="Rectangle_47" data-name="Rectangle 47" width="1.2" height="1.2" transform="translate(535.837 413.837)" fill="#ad221f"/>
    <g id="Group_290" data-name="Group 290">
      <g id="Group_305" data-name="Group 305">
        <rect id="Rectangle_48" data-name="Rectangle 48" width="1.2" height="1.2" transform="translate(538.237 413.837)" fill="#555" stroke="#555" stroke-width="0.1"/>
        <path id="Path_2556" data-name="Path 2556" d="M553.837,383.238h-4.2v-1.2a.6.6,0,0,0-.6-.6h-6a.6.6,0,0,0-.6.6v1.2h-23.4a.6.6,0,0,0-.6.6v2.4a.6.6,0,0,0,.6.6h1.8v11.4a.6.6,0,0,0,.6.6.6.6,0,1,1-.6.6h-1.2a1.782,1.782,0,0,0,.46,1.189l-1.539,2.052.007.006a.589.589,0,0,0-.128.354v2.4a.6.6,0,0,0,.176.425l1.2,1.2a.6.6,0,0,0,.424.176h2.4a.6.6,0,0,0,.425-.176l1.2-1.2a.6.6,0,0,0,.175-.425v-2.4a.582.582,0,0,0-.127-.354l.007-.006-1.539-2.052a1.789,1.789,0,0,0-.741-2.886v-10.9h20.4v.6a.6.6,0,0,0,.6.6h1.2v28.2h-2.4v-24h-1.2v2.4h-3.6v-1.2h-1.2v1.2h-3.6v-.6h-1.2v.6h-3.6v-1.8h7.8v-1.2h-7.8v-2.4h-1.2v27h-.951l-2.824-2.824a.6.6,0,0,0-.849,0l-2.824,2.824h-.352v1.2h36v-1.2h-.468a132.224,132.224,0,0,1-1.44-5.038,3.471,3.471,0,0,0-3.624,5.038h-1.068v-28.2h1.2a.6.6,0,0,0,.6-.6v-.6h4.2a.6.6,0,0,0,.6-.6v-2.4a.6.6,0,0,0-.6-.6Zm-32.1,18,.9,1.2h-2.4l.9-1.2Zm1.5,3.951-.848.849h-1.9l-.849-.849v-1.552h3.6Zm28.02-20.751-1.62,1.08v-1.08Zm-7.62-1.8h2.4v2.4h-2.4Zm-16.2,1.921,1.621,1.079h-3.241Zm-3.6.96-1.62-1.08h3.241Zm5.58-1.08h3.241l-1.621,1.08Zm5.22.12,1.621,1.079h-3.241Zm1.98-.12h3.24l-1.62,1.08Zm-16.98,0h.421l1.8,1.2h-2.221Zm20.58,1.2,1.8-1.2h.42v1.2Zm6.42,28.621-1.08-1.621,1.08-1.619Zm0-14.4-1.08-1.62,1.08-1.62Zm-1.2.36,1.08,1.619-1.08,1.621Zm0-3.96v-3.24l1.08,1.619Zm0,11.16,1.08,1.62-1.08,1.62Zm1.2-.364-1.08-1.617,1.08-1.619Zm-1.08-16.016,1.08-1.62v3.24Zm-.12-1.98v-1.02h.679Zm-4.8,6.779v6h-3.6v-6Zm-4.8,0V401l-1.379-1.364a.6.6,0,0,0-.421-.174h-1.8v-3.623Zm-4.8,0v1h-3.6v-1Zm-9,18.849,1.552,1.552h-3.1Zm5.4,1.552v-18.2h3.6v2.025a.6.6,0,0,0,.6.6h2.154l2.226,2.2a.6.6,0,0,0,.42.174h4.2v13.2Zm18-1.62,1.08,1.62h-1.08Zm7.2,1.019a.6.6,0,1,1,.6-.6.6.6,0,0,1-.6.6Zm-1.2-3.6a.6.6,0,1,1-.6.6.6.6,0,0,1,.6-.6Zm-1.2,2.4a.6.6,0,1,1-.6.6.6.6,0,0,1,.6-.6Zm-1.8-27.6h-4.8v-.6h3a.6.6,0,0,0,.6-.6v-3h1.2Zm3.18-1.2,1.62-1.079v1.079Zm0,0" fill="#555" stroke="#555" stroke-width="0.1"/>
      </g>
    </g>
  </g>
</svg>
