<svg xmlns="http://www.w3.org/2000/svg" width="28.509" height="36.401" viewBox="0 0 28.509 36.401">
  <g id="Group_296" data-name="Group 296" transform="translate(-1265.804 -627.649)">
    <g id="Group_303" data-name="Group 303">
      <g id="Group_304" data-name="Group 304">
        <path id="Path_2565" data-name="Path 2565" d="M1291.9,627.849h-12.4a2.22,2.22,0,0,0-1.931,1.128h-1.775a2.219,2.219,0,0,0-1.93-1.128h-5.637a2.221,2.221,0,0,0-2.218,2.219v23.673a2.221,2.221,0,0,0,2.218,2.218h2.291v1.727a6.164,6.164,0,1,0,12.327,0v-1.727h9.055a2.221,2.221,0,0,0,2.218-2.218V630.068a2.221,2.221,0,0,0-2.218-2.219Zm-24.837,25.892V630.068a1.165,1.165,0,0,1,1.164-1.164h5.637a1.165,1.165,0,0,1,1.163,1.164v23.849a.528.528,0,1,0,1.055,0V630.032h1.2v23.745h-1.2v-.6a.528.528,0,0,0-1.055,0v.564a1.165,1.165,0,0,1-1.163,1.163h-5.637a1.165,1.165,0,0,1-1.164-1.163Zm14.727,3.945a5.109,5.109,0,1,1-10.217,0v-1.727h2.29a2.221,2.221,0,0,0,1.931-1.127h1.775a2.221,2.221,0,0,0,1.931,1.127h2.291v1.727Zm10.11-2.782h-12.4a1.165,1.165,0,0,1-1.164-1.163V641.3h4.333a.527.527,0,0,0,0-1.054h-4.333V630.068a1.165,1.165,0,0,1,1.164-1.164h12.4a1.165,1.165,0,0,1,1.163,1.164V640.25h-11.872a.527.527,0,1,0,0,1.054h11.872v12.437a1.165,1.165,0,0,1-1.163,1.163Zm0,0" fill="#555" stroke="#555" stroke-width="0.4"/>
      </g>
    </g>
    <path id="Path_2566" data-name="Path 2566" d="M1283.44,638.486a.527.527,0,1,0,0-1.055h-2.254a.037.037,0,0,1-.037-.036v-5.636a.037.037,0,0,1,.037-.036h9.018a.036.036,0,0,1,.036.036V637.4a.036.036,0,0,1-.036.036h-6.979a.527.527,0,0,0,0,1.055h6.979a1.092,1.092,0,0,0,1.091-1.091v-5.636a1.092,1.092,0,0,0-1.091-1.091h-9.018a1.092,1.092,0,0,0-1.091,1.091V637.4a1.092,1.092,0,0,0,1.091,1.091Zm0,0" fill="#ad221f" stroke="#ad221f" stroke-width="0.2"/>
    <path id="Path_2567" data-name="Path 2567" d="M1289.64,643.068a1.655,1.655,0,1,0,1.655,1.655,1.657,1.657,0,0,0-1.655-1.655Zm0,2.254a.6.6,0,1,1,.6-.6.6.6,0,0,1-.6.6Zm0,0" fill="#555"/>
    <path id="Path_2568" data-name="Path 2568" d="M1289.64,647.577a1.654,1.654,0,1,0,1.655,1.655,1.657,1.657,0,0,0-1.655-1.655Zm0,2.254a.6.6,0,1,1,.6-.6.6.6,0,0,1-.6.6Zm0,0" fill="#555"/>
  </g>
</svg>
