<svg xmlns="http://www.w3.org/2000/svg" xmlns:xlink="http://www.w3.org/1999/xlink" width="36.96" height="35.686" viewBox="0 0 36.96 35.686">
  <defs>
    <clipPath id="clip-path">
      <rect id="Rectangle_56" data-name="Rectangle 56" width="30.423" height="30.423" fill="none"/>
    </clipPath>
  </defs>
  <g id="Group_331" data-name="Group 331" transform="translate(-1743 -480.8)">
    <g id="Group_348" data-name="Group 348" transform="translate(1743 481.5)">
      <g id="Group_330" data-name="Group 330" transform="translate(0 4.563)">
        <g id="Group_329" data-name="Group 329" clip-path="url(#clip-path)">
          <path id="Path_2620" data-name="Path 2620" d="M1772.86,515.323h-5.771V503.481l1.548.821a.529.529,0,1,0,.5-.935l-4.751-2.517,7.384-9.332a.53.53,0,0,0,.047-.586l-2.594-4.621a.533.533,0,0,0-.461-.271h-13.626a.528.528,0,0,0-.461.271l-2.594,4.621a.525.525,0,0,0,.047.586l5.135,6.49-9.986,5.357a.529.529,0,0,0,.5.932l1.536-.823v11.849h-5.763a.529.529,0,0,0,0,1.058h29.314a.529.529,0,1,0,0-1.058Zm-19.23-23.6h4.771l2.385,9.042Zm10.762,0L1761.944,501l-2.448-9.283Zm-4.587-1.059,2.138-3.151,2.138,3.151Zm3.137-3.563h4.717l-2.546,3.2Zm-4.167,3.2-2.546-3.2h4.716Zm6.712,1.42h4.771l-7.156,9.042Zm4.959-1.057h-4.27l2.5-3.148Zm-15.239-3.148,2.5,3.148h-4.271Zm-4.841,15.393,7.558-4.056,3.6,4.554a.52.52,0,0,0,.09.089l.016.01a.492.492,0,0,0,.118.063l.037.014a.472.472,0,0,0,.307,0l.038-.014a.549.549,0,0,0,.119-.063l.016-.01a.528.528,0,0,0,.089-.089l1.356-1.711,2.318,1.227v12.4h-4.446v-5.41a.529.529,0,0,0-.528-.528h-5.717a.529.529,0,0,0-.53.528v5.41h-4.444Zm10.161,12.417h-4.658v-4.881h4.658Zm0,0" transform="translate(-1742.992 -485.983)" fill="#555"/>
        </g>
      </g>
      <line id="Line_16" data-name="Line 16" x1="5.07" y1="3.042" transform="translate(1.521 5.07)" fill="none" stroke="#ad221f" stroke-linecap="round" stroke-width="1.4"/>
      <line id="Line_17" data-name="Line 17" x1="2.028" y1="3.042" transform="translate(8.62 1.014)" fill="none" stroke="#ad221f" stroke-linecap="round" stroke-width="1.4"/>
      <line id="Line_18" data-name="Line 18" y1="2.028" x2="2.028" transform="translate(26.873 1.014)" fill="none" stroke="#ad221f" stroke-linecap="round" stroke-width="1.4"/>
      <line id="Line_19" data-name="Line 19" y1="3.042" x2="5.07" transform="translate(30.93 6.085)" fill="none" stroke="#ad221f" stroke-linecap="round" stroke-width="1.4"/>
      <line id="Line_20" data-name="Line 20" y1="3.042" transform="translate(18.761)" fill="none" stroke="#ad221f" stroke-linecap="round" stroke-width="1.4"/>
    </g>
  </g>
</svg>
