<svg xmlns="http://www.w3.org/2000/svg" width="18.059" height="26" viewBox="0 0 18.059 26">
  <g id="Group_215" data-name="Group 215" transform="translate(-597.228 -981.714)">
    <path id="Path_2414" data-name="Path 2414" d="M614.5,981.714H598.012a.783.783,0,0,0-.784.784v24.434a.783.783,0,0,0,.784.783H614.5a.783.783,0,0,0,.784-.783V982.5a.783.783,0,0,0-.784-.784Zm-.784,24.434H598.794V983.281H613.72Zm0,0" fill="#555"/>
    <path id="Path_2415" data-name="Path 2415" d="M603.531,994.756h-1.026a.784.784,0,0,0,0,1.567h1.026a.784.784,0,1,0,0-1.567Zm0,0" transform="translate(-0.564 -1.637)" fill="#555"/>
    <path id="Path_2416" data-name="Path 2416" d="M606.757,996.323h1.026a.784.784,0,0,0,0-1.567h-1.026a.784.784,0,0,0,0,1.567Zm0,0" transform="translate(-1.098 -1.637)" fill="#555"/>
    <path id="Path_2417" data-name="Path 2417" d="M612.033,994.756h-1.026a.784.784,0,0,0,0,1.567h1.026a.784.784,0,1,0,0-1.567Zm0,0" transform="translate(-1.631 -1.637)" fill="#555"/>
    <path id="Path_2418" data-name="Path 2418" d="M603.531,997.688h-1.026a.783.783,0,0,0,0,1.566h1.026a.783.783,0,1,0,0-1.566Zm0,0" transform="translate(-0.564 -2.005)" fill="#555"/>
    <path id="Path_2419" data-name="Path 2419" d="M606.757,999.254h1.026a.783.783,0,1,0,0-1.566h-1.026a.783.783,0,0,0,0,1.566Zm0,0" transform="translate(-1.098 -2.005)" fill="#555"/>
    <path id="Path_2420" data-name="Path 2420" d="M612.033,997.688h-1.026a.783.783,0,1,0,0,1.566h1.026a.783.783,0,1,0,0-1.566Zm0,0" transform="translate(-1.631 -2.005)" fill="#555"/>
    <path id="Path_2421" data-name="Path 2421" d="M603.531,1000.619h-1.026a.784.784,0,0,0,0,1.567h1.026a.784.784,0,1,0,0-1.567Zm0,0" transform="translate(-0.564 -2.373)" fill="#555"/>
    <path id="Path_2422" data-name="Path 2422" d="M606.757,1002.186h1.026a.784.784,0,0,0,0-1.567h-1.026a.784.784,0,0,0,0,1.567Zm0,0" transform="translate(-1.098 -2.373)" fill="#555"/>
    <path id="Path_2423" data-name="Path 2423" d="M612.033,1000.619h-1.026a.784.784,0,0,0,0,1.567h1.026a.784.784,0,1,0,0-1.567Zm0,0" transform="translate(-1.631 -2.373)" fill="#555"/>
    <path id="Path_2424" data-name="Path 2424" d="M603.531,1003.551h-1.026a.784.784,0,0,0,0,1.567h1.026a.784.784,0,1,0,0-1.567Zm0,0" transform="translate(-0.564 -2.741)" fill="#555"/>
    <path id="Path_2425" data-name="Path 2425" d="M611.5,1003.551h-4.743a.784.784,0,0,0,0,1.567H611.5a.784.784,0,1,0,0-1.567Zm0,0" transform="translate(-1.098 -2.741)" fill="#555"/>
    <path id="Path_2426" data-name="Path 2426" d="M602.018,989.482H610.9a.783.783,0,1,0,0-1.566h-8.886a.783.783,0,1,0,0,1.566Zm0,0" transform="translate(-0.503 -0.778)" fill="#ad221f"/>
  </g>
</svg>
