<svg xmlns="http://www.w3.org/2000/svg" width="36" height="32.344" viewBox="0 0 36 32.344">
  <g id="key" transform="translate(0 0)">
    <path id="Path_2631" data-name="Path 2631" d="M216.244,17.061a4.918,4.918,0,0,0,4.842-5.787l1.837-1.837a.7.7,0,0,0,.206-.5v-1.7l.583-.583h1.7a.7.7,0,0,0,.5-.206l.779-.779a.7.7,0,0,0,.206-.5V2.2a.7.7,0,0,0-.206-.5L225.193.206a.7.7,0,0,0-.994,0L218.53,5.875a.805.805,0,0,0,0,1.076.709.709,0,0,0,.994-.081L224.7,1.7l.789.788v2.4l-.367.367h-1.7a.7.7,0,0,0-.5.206l-.995.994a.7.7,0,0,0-.206.5v1.7l-1.15,1.15a4.935,4.935,0,0,0-1.987-1.99l.939-.939a.7.7,0,1,0-.995-.994l-1.419,1.419a4.993,4.993,0,0,0-.867-.077,4.922,4.922,0,1,0,0,9.844Zm-2.486-7.408a3.493,3.493,0,0,1,2.486-1.03,3.538,3.538,0,0,1,.891.114h0a3.522,3.522,0,0,1,2.507,2.507v0a3.529,3.529,0,0,1,.114.892,3.516,3.516,0,1,1-6-2.486Zm0,0" transform="translate(-196.465 0)" fill="#ad221f"/>
    <path id="Path_2632" data-name="Path 2632" d="M257.41,178.451a1,1,0,1,0,.067-1.413,1,1,0,0,0-.067,1.413Zm0,0" transform="translate(-239.068 -164.348)" fill="#555"/>
    <path id="Path_2633" data-name="Path 2633" d="M35.9,282.654a2.284,2.284,0,0,0-2.922-1.379l-.012,0-6.435,1.755a2.122,2.122,0,0,0-2.314-1.592c-.376.047-1.391.194-2.465.35-1.02.148-2.074.3-2.437.347a6.309,6.309,0,0,1-2.844-.706c-1.641-.661-3.625-1.46-5.782-.5v-.222a.7.7,0,0,0-.7-.7H4.36a.7.7,0,0,0-.7.7H.7a.7.7,0,0,0,0,1.406H3.657v8.437H.7a.7.7,0,0,0,0,1.407H3.657a.7.7,0,0,0,.7.7H9.985a.7.7,0,0,0,.7-.7v-.734l.938.006h0a.7.7,0,0,0,0-1.406l-.947-.006v-7.295c1.841-1.16,3.5-.492,5.257.215a7.338,7.338,0,0,0,3.544.8c.376-.047,1.39-.194,2.463-.35,1.02-.148,2.075-.3,2.438-.347a.7.7,0,0,1,.517.144.718.718,0,0,1,.274.481c.015.124.056.455-.825.864a35.326,35.326,0,0,1-5.454,2.032.7.7,0,1,0,.362,1.359,36.794,36.794,0,0,0,5.683-2.115,3.109,3.109,0,0,0,1.332-1.042l7.049-1.922c.742-.186,1.122.109,1.231.447a.783.783,0,0,1-.553.973c-.552.21-1.869.79-3.536,1.524-2.209.972-4.957,2.182-7.149,3.071a12.28,12.28,0,0,1-6.065,1.206l-5.867-.008a.7.7,0,0,0,0,1.406l6.035.008a13.5,13.5,0,0,0,6.427-1.31c2.211-.9,4.97-2.111,7.187-3.087,1.587-.7,2.958-1.3,3.473-1.5l.007,0a2.176,2.176,0,0,0,1.381-2.713Zm-30.836,8.6V281.41H9.282v9.1h0v.742H5.063Zm0,0" transform="translate(0 -260.316)" fill="#555"/>
    <path id="Path_2634" data-name="Path 2634" d="M92.707,400a.7.7,0,0,0-.7.7h0a.7.7,0,1,0,.7-.7Zm0,0" transform="translate(-85.535 -371.871)" fill="#555"/>
  </g>
</svg>
