<svg xmlns="http://www.w3.org/2000/svg" 
  xmlns:xlink="http://www.w3.org/1999/xlink" viewBox="0 0 498.523 498.523">
  <g opacity=".08" fill="#694841" stroke="#fff" stroke-width="4">
    <use xlink:href="#B"/>
    <use xlink:href="#B" y="-19.782"/>
    <use xlink:href="#B" y="-39.563"/>
    <use xlink:href="#B" y="-59.343"/>
    <use xlink:href="#B" y="-79.124"/>
    <use xlink:href="#B" x="19.781" y="-19.782"/>
    <use xlink:href="#B" x="19.781" y="-39.563"/>
    <use xlink:href="#B" x="19.781" y="-59.343"/>
    <use xlink:href="#B" x="19.781" y="-79.124"/>
    <use xlink:href="#B" x="19.781" y="-98.905"/>
    <use xlink:href="#B" x="39.562" y="-39.563"/>
    <use xlink:href="#B" x="39.562" y="-59.343"/>
    <use xlink:href="#B" x="39.562" y="-79.124"/>
    <use xlink:href="#B" x="39.562" y="-98.905"/>
    <use xlink:href="#B" x="39.562" y="-118.686"/>
    <use xlink:href="#B" x="59.343" y="-59.343"/>
    <use xlink:href="#B" x="59.343" y="-79.124"/>
    <use xlink:href="#B" x="59.343" y="-98.905"/>
    <use xlink:href="#B" x="59.343" y="-118.686"/>
    <use xlink:href="#B" x="59.343" y="-138.467"/>
    <use xlink:href="#C"/>
    <use xlink:href="#C" y="-19.782"/>
    <use xlink:href="#C" y="-39.563"/>
    <use xlink:href="#C" y="-59.343"/>
    <use xlink:href="#C" y="-79.124"/>
    <use xlink:href="#B" x="-59.342" y="-19.782"/>
    <use xlink:href="#B" x="-59.342" y="-39.563"/>
    <use xlink:href="#B" x="-59.342" y="-59.343"/>
    <use xlink:href="#B" x="-59.342" y="-79.124"/>
    <use xlink:href="#B" x="-59.342" y="-98.905"/>
    <use xlink:href="#B" x="-79.124" y="-39.563"/>
    <use xlink:href="#B" x="-79.124" y="-59.343"/>
    <use xlink:href="#B" x="-79.124" y="-79.124"/>
    <use xlink:href="#B" x="-79.124" y="-98.905"/>
    <use xlink:href="#B" x="-79.124" y="-118.686"/>
    <use xlink:href="#B" x="-98.904" y="-59.343"/>
    <use xlink:href="#B" x="-98.904" y="-79.124"/>
    <use xlink:href="#B" x="-98.904" y="-98.905"/>
    <use xlink:href="#B" x="-98.904" y="-118.686"/>
    <use xlink:href="#B" x="-98.904" y="-138.467"/>
    <use xlink:href="#C" y="158.246"/>
    <use xlink:href="#C" y="138.466"/>
    <use xlink:href="#C" y="118.685"/>
    <use xlink:href="#C" y="98.904"/>
    <use xlink:href="#C" y="79.123"/>
    <use xlink:href="#B" x="-59.342" y="178.028"/>
    <use xlink:href="#B" x="-59.342" y="158.246"/>
    <use xlink:href="#B" x="-59.342" y="138.466"/>
    <use xlink:href="#B" x="-59.342" y="118.685"/>
    <use xlink:href="#B" x="-59.342" y="98.904"/>
    <use xlink:href="#B" x="-79.124" y="197.808"/>
    <use xlink:href="#B" x="-79.124" y="178.028"/>
    <use xlink:href="#B" x="-79.124" y="158.246"/>
    <use xlink:href="#B" x="-79.124" y="138.466"/>
    <use xlink:href="#B" x="-79.124" y="118.685"/>
    <use xlink:href="#B" x="-98.904" y="217.59"/>
    <use xlink:href="#B" x="-98.904" y="197.808"/>
    <use xlink:href="#B" x="-98.904" y="178.028"/>
    <use xlink:href="#B" x="-98.904" y="158.246"/>
    <use xlink:href="#B" x="-98.904" y="138.466"/>
    <use xlink:href="#B" y="158.246"/>
    <use xlink:href="#B" y="138.466"/>
    <use xlink:href="#B" y="118.685"/>
    <use xlink:href="#B" y="98.904"/>
    <use xlink:href="#B" y="79.123"/>
    <use xlink:href="#B" x="19.781" y="178.028"/>
    <use xlink:href="#B" x="19.781" y="158.246"/>
    <use xlink:href="#B" x="19.781" y="138.466"/>
    <use xlink:href="#B" x="19.781" y="118.685"/>
    <use xlink:href="#B" x="19.781" y="98.904"/>
    <use xlink:href="#B" x="39.562" y="197.808"/>
    <use xlink:href="#B" x="39.562" y="178.028"/>
    <use xlink:href="#B" x="39.562" y="158.246"/>
    <use xlink:href="#B" x="39.562" y="138.466"/>
    <use xlink:href="#B" x="39.562" y="118.685"/>
    <use xlink:href="#B" x="59.343" y="217.59"/>
    <use xlink:href="#B" x="59.343" y="197.808"/>
    <use xlink:href="#B" x="59.343" y="178.028"/>
    <use xlink:href="#B" x="59.343" y="158.246"/>
    <use xlink:href="#B" x="59.343" y="138.466"/>
    <use xlink:href="#B" x="-59.342" y="19.79"/>
    <use xlink:href="#B" x="-19.782" y="19.79"/>
    <use xlink:href="#B" x="-19.782" y="59.342"/>
    <use xlink:href="#B" y="39.56"/>
    <use xlink:href="#C" y="39.56"/>
    <use xlink:href="#B" x="-79.124" y="19.79"/>
    <use xlink:href="#B" x="-98.904" y="19.79"/>
    <use xlink:href="#B" x="-118.685" y="19.79"/>
    <use xlink:href="#B" x="-138.466" y="19.79"/>
    <use xlink:href="#B" x="-79.124"/>
    <use xlink:href="#B" x="-98.904"/>
    <use xlink:href="#B" x="-118.685"/>
    <use xlink:href="#B" x="-138.466"/>
    <use xlink:href="#B" x="-158.248"/>
    <use xlink:href="#B" x="-98.904" y="-19.782"/>
    <use xlink:href="#B" x="-118.685" y="-19.782"/>
    <use xlink:href="#B" x="-138.466" y="-19.782"/>
    <use xlink:href="#B" x="-158.248" y="-19.782"/>
    <use xlink:href="#B" x="-178.028" y="-19.782"/>
    <use xlink:href="#B" x="-118.685" y="-39.563"/>
    <use xlink:href="#B" x="-138.466" y="-39.563"/>
    <use xlink:href="#B" x="-138.466" y="-79.124"/>
    <use xlink:href="#B" x="-138.466" y="-98.905"/>
    <use xlink:href="#B" x="-19.782" y="-158.248"/>
    <use xlink:href="#B" x="-217.59" y="39.56"/>
    <use xlink:href="#B" x="-19.782" y="237.37"/>
    <use xlink:href="#B" x="178.028" y="39.56"/>
    <use xlink:href="#B" x="-158.248" y="-98.905"/>
    <use xlink:href="#B" x="-158.248" y="-118.686"/>
    <use xlink:href="#B" x="-178.028" y="-98.905"/>
    <use xlink:href="#B" x="-158.248" y="-79.124"/>
    <use xlink:href="#B" x="118.686" y="-79.124"/>
    <use xlink:href="#B" x="118.686" y="-98.905"/>
    <use xlink:href="#B" x="118.686" y="-118.686"/>
    <use xlink:href="#B" x="138.468" y="-98.905"/>
    <use xlink:href="#B" x="98.905" y="-98.905"/>
    <use xlink:href="#B" x="98.905" y="-79.124"/>
    <use xlink:href="#B" x="118.686" y="178.028"/>
    <use xlink:href="#B" x="118.686" y="197.808"/>
    <use xlink:href="#B" x="138.468" y="178.028"/>
    <use xlink:href="#B" x="118.686" y="158.246"/>
    <use xlink:href="#B" x="98.905" y="158.246"/>
    <use xlink:href="#B" x="98.905" y="178.028"/>
    <use xlink:href="#B" x="-138.466" y="178.028"/>
    <use xlink:href="#B" x="-138.466" y="158.246"/>
    <use xlink:href="#B" x="-158.248" y="158.246"/>
    <use xlink:href="#B" x="-158.248" y="178.028"/>
    <use xlink:href="#B" x="-158.248" y="197.808"/>
    <use xlink:href="#B" x="-178.028" y="178.028"/>
    <use xlink:href="#B" x="-158.248" y="-39.563"/>
    <use xlink:href="#B" x="-178.028" y="-39.563"/>
    <use xlink:href="#B" x="-197.809" y="-39.563"/>
    <use xlink:href="#B" x="-59.342" y="59.342"/>
    <use xlink:href="#B" x="-79.124" y="59.342"/>
    <use xlink:href="#B" x="-98.904" y="59.342"/>
    <use xlink:href="#B" x="-118.685" y="59.342"/>
    <use xlink:href="#B" x="-138.466" y="59.342"/>
    <use xlink:href="#B" x="-79.124" y="79.123"/>
    <use xlink:href="#B" x="-98.904" y="79.123"/>
    <use xlink:href="#B" x="-118.685" y="79.123"/>
    <use xlink:href="#B" x="-138.466" y="79.123"/>
    <use xlink:href="#B" x="-158.248" y="79.123"/>
    <use xlink:href="#B" x="-98.904" y="98.904"/>
    <use xlink:href="#B" x="-118.685" y="98.904"/>
    <use xlink:href="#B" x="-138.466" y="98.904"/>
    <use xlink:href="#B" x="-158.248" y="98.904"/>
    <use xlink:href="#B" x="-178.028" y="98.904"/>
    <use xlink:href="#B" x="-118.685" y="118.685"/>
    <use xlink:href="#B" x="-138.466" y="118.685"/>
    <use xlink:href="#B" x="-158.248" y="118.685"/>
    <use xlink:href="#B" x="-178.028" y="118.685"/>
    <use xlink:href="#B" x="-197.809" y="118.685"/>
    <use xlink:href="#B" x="98.905" y="59.342"/>
    <use xlink:href="#B" x="79.124" y="59.342"/>
    <use xlink:href="#B" x="59.343" y="59.342"/>
    <use xlink:href="#B" x="39.562" y="59.342"/>
    <use xlink:href="#B" x="19.781" y="59.342"/>
    <use xlink:href="#B" x="118.686" y="79.123"/>
    <use xlink:href="#B" x="98.905" y="79.123"/>
    <use xlink:href="#B" x="79.124" y="79.123"/>
    <use xlink:href="#B" x="59.343" y="79.123"/>
    <use xlink:href="#B" x="39.562" y="79.123"/>
    <use xlink:href="#B" x="138.468" y="98.904"/>
    <use xlink:href="#B" x="118.686" y="98.904"/>
    <use xlink:href="#B" x="98.905" y="98.904"/>
    <use xlink:href="#B" x="79.124" y="98.904"/>
    <use xlink:href="#B" x="59.343" y="98.904"/>
    <path d="M417.4 318.495h19.78v19.78H417.4z"/>
    <use xlink:href="#B" x="138.468" y="118.685"/>
    <use xlink:href="#B" x="118.686" y="118.685"/>
    <use xlink:href="#B" x="98.905" y="118.685"/>
    <use xlink:href="#B" x="79.124" y="118.685"/>
    <use xlink:href="#B" x="98.905" y="19.79"/>
    <use xlink:href="#B" x="79.124" y="19.79"/>
    <use xlink:href="#B" x="59.343" y="19.79"/>
    <use xlink:href="#B" x="39.562" y="19.79"/>
    <use xlink:href="#B" x="19.781" y="19.79"/>
    <use xlink:href="#B" x="118.686"/>
    <use xlink:href="#B" x="98.905"/>
    <use xlink:href="#B" x="79.124"/>
    <use xlink:href="#B" x="59.343"/>
    <use xlink:href="#B" x="39.562"/>
    <use xlink:href="#B" x="138.468" y="-19.782"/>
    <use xlink:href="#B" x="118.686" y="-19.782"/>
    <use xlink:href="#B" x="98.905" y="-19.782"/>
    <use xlink:href="#B" x="79.124" y="-19.782"/>
    <use xlink:href="#B" x="59.343" y="-19.782"/>
    <path d="M417.4 160.247h19.78v19.78H417.4z"/>
    <use xlink:href="#B" x="138.468" y="-39.563"/>
    <use xlink:href="#B" x="118.686" y="-39.563"/>
    <use xlink:href="#B" x="98.905" y="-39.563"/>
    <use xlink:href="#B" x="79.124" y="-39.563"/>
    <use xlink:href="#B" x="-19.782" y="39.56"/>
    <use xlink:href="#B" x="-19.782" y="-118.686"/>
    <use xlink:href="#C" y="-138.467"/>
    <use xlink:href="#B" x="-19.782" y="-138.467"/>
    <use xlink:href="#B" y="-138.467"/>
    <use xlink:href="#B" y="-158.248"/>
    <use xlink:href="#B" x="19.781" y="-158.248"/>
    <use xlink:href="#C" y="-158.248"/>
    <use xlink:href="#B" x="-59.342" y="-158.248"/>
    <use xlink:href="#C" y="-178.03"/>
    <use xlink:href="#B" x="-19.782" y="-178.03"/>
    <use xlink:href="#B" y="-178.03"/>
    <use xlink:href="#B" x="-19.782" y="-197.81"/>
    <use xlink:href="#B" x="178.028" y="79.123"/>
    <path d="M417.4 259.152h19.78v19.78H417.4z"/>
    <use xlink:href="#B" x="178.028" y="59.342"/>
    <use xlink:href="#B" x="197.808" y="59.342"/>
    <use xlink:href="#B" x="197.808" y="39.56"/>
    <use xlink:href="#B" x="217.59" y="39.56"/>
    <path d="M417.4 239.37h19.78v19.78H417.4z"/>
    <use xlink:href="#B" x="138.466" y="39.56"/>
    <path d="M417.4 219.6h19.78v19.78H417.4z"/>
    <use xlink:href="#B" x="178.028" y="19.79"/>
    <use xlink:href="#B" x="197.808" y="19.79"/>
    <use xlink:href="#B" x="178.028"/>
    <use xlink:href="#B" x="-19.782" y="276.932"/>
    <use xlink:href="#C" y="257.15"/>
    <use xlink:href="#B" x="-19.782" y="257.15"/>
    <use xlink:href="#B" y="257.15"/>
    <use xlink:href="#B" y="237.37"/>
    <use xlink:href="#B" x="19.781" y="237.37"/>
    <use xlink:href="#C" y="237.37"/>
    <use xlink:href="#B" x="-59.342" y="237.37"/>
    <use xlink:href="#C" y="217.59"/>
    <use xlink:href="#B" x="-19.782" y="217.59"/>
    <use xlink:href="#B" y="217.59"/>
    <use xlink:href="#B" x="-19.782" y="197.808"/>
    <use xlink:href="#B" x="-217.59" y="79.123"/>
    <path d="M21.78 259.152h19.78v19.78H21.78z"/>
    <use xlink:href="#B" x="-217.59" y="59.342"/>
    <use xlink:href="#B" x="-197.809" y="59.342"/>
    <use xlink:href="#B" x="-197.809" y="39.56"/>
    <use xlink:href="#B" x="-178.029" y="39.56"/>
    <path d="M21.78 239.37h19.78v19.78H21.78z"/>
    <path d="M2 239.37h19.78v19.78H2z"/>
    <path d="M21.78 219.6h19.78v19.78H21.78z"/>
    <use xlink:href="#B" x="-217.59" y="19.79"/>
    <use xlink:href="#B" x="-197.809" y="19.79"/>
    <use xlink:href="#B" x="-217.59"/>
  </g>
  <defs >
    <path id="B" d="M259.152 199.81h19.78v19.78h-19.78z"/>
    <path id="C" d="M219.6 199.81h19.78v19.78H219.6z"/>
  </defs>
</svg>