<?xml version="1.0" encoding="utf-8"?>
<!-- Generator: Adobe Illustrator 21.1.0, SVG Export Plug-In . SVG Version: 6.00 Build 0)  -->
<svg version="1.1" id="Layer_2" xmlns="http://www.w3.org/2000/svg" xmlns:xlink="http://www.w3.org/1999/xlink" x="0px" y="0px"
	 viewBox="0 0 540 100" enable-background="new 0 0 540 100" xml:space="preserve">
<g>
	<circle fill="#418CCF" cx="50.4" cy="50" r="50"/>
	<path fill="#394145" d="M128,84.8c-2.1,0-3.6-0.5-4.4-1.3c-0.8-0.9-1.2-2.4-1.2-4.4V20.4c0-1.9,0.4-3.4,1.2-4.3
		c0.8-0.9,2.3-1.4,4.4-1.4l18.5-0.1c5.4,0,10.1,0.9,14.1,2.6c4,1.7,7.3,4.1,9.9,7.2c2.6,3.1,4.5,6.7,5.8,10.9
		c1.3,4.2,1.9,8.9,1.9,14c0,5-0.6,9.7-1.7,14c-1.1,4.3-2.9,8.1-5.4,11.3c-2.5,3.2-5.7,5.7-9.6,7.5c-3.9,1.8-8.6,2.8-14,2.8H128z
		 M165.6,49.4c0-3.4-0.3-6.5-1-9.4c-0.6-2.9-1.7-5.4-3.3-7.6c-1.5-2.2-3.6-3.9-6.2-5.1c-2.6-1.2-5.8-1.8-9.7-1.8h-10.8v48.3h11.1
		c3.9,0,7.1-0.6,9.6-1.8c2.5-1.2,4.5-2.9,6-5.1c1.5-2.2,2.6-4.7,3.2-7.7C165.3,56.2,165.6,52.9,165.6,49.4z"/>
	<path fill="#394145" d="M233.8,58.3c0,8.9-2,15.7-6.1,20.5c-4.1,4.8-10.2,7.1-18.4,7.1c-8.1,0-14.1-2.3-18-6.9
		c-4-4.6-6-11.4-6-20.4c0-4.4,0.6-8.3,1.8-11.7c1.2-3.4,2.9-6.3,5-8.6c2.1-2.3,4.7-4.1,7.7-5.4c3-1.2,6.3-1.9,9.8-1.9
		c7.9,0,14,2.4,18.1,7.3C231.8,43.1,233.8,49.8,233.8,58.3z M221.9,58.5c0-2.4-0.2-4.7-0.6-6.8c-0.4-2.1-1-4-1.9-5.7
		c-0.9-1.6-2.1-2.9-3.7-3.9c-1.6-0.9-3.6-1.4-6-1.4c-2.1,0-4,0.5-5.6,1.4c-1.6,0.9-2.9,2.1-4,3.7c-1.1,1.5-1.9,3.4-2.4,5.5
		c-0.5,2.1-0.8,4.5-0.8,6.9c0,5.6,0.9,9.9,2.7,13.1c1.8,3.2,5,4.8,9.6,4.8c2.3,0,4.3-0.5,5.9-1.5s2.9-2.3,3.9-3.9
		c1-1.6,1.7-3.5,2.1-5.6C221.7,63.1,221.9,60.9,221.9,58.5z"/>
	<path fill="#394145" d="M253.2,84.5c-0.3,0.2-0.8,0.3-1.5,0.3h-7.8c-0.7,0-1.1-0.1-1.4-0.3c-0.3-0.2-0.5-0.7-0.5-1.4V40.5
		c0-1.2,0.1-2.3,0.3-3.2c0.2-0.9,0.5-1.8,1-2.5c0.5-0.7,1.1-1.3,2-1.8c0.9-0.5,2-0.9,3.5-1.2c0.5-0.1,1.2-0.2,2.2-0.3
		c1-0.1,2.1-0.2,3.3-0.3c1.2-0.1,2.3-0.1,3.5-0.2c1.1-0.1,2.1-0.1,2.9-0.1c4.1,0,7.5,0.4,10.4,1.2c2.9,0.8,5.4,2.1,7.6,3.8
		c2.3-1.5,5.1-2.8,8.3-3.6s6.6-1.4,10.2-1.4c4.1,0,7.7,0.6,10.6,1.8c2.9,1.2,5.3,2.9,7.2,5c1.8,2.1,3.2,4.7,4.1,7.8
		c0.9,3,1.3,6.4,1.3,9.9V83c0,0.7-0.2,1.2-0.4,1.4c-0.3,0.2-0.8,0.3-1.6,0.3h-7.7c-0.7,0-1.2-0.1-1.5-0.3c-0.3-0.2-0.4-0.7-0.4-1.4
		V57c0-5.4-1-9.4-2.9-12c-1.9-2.6-5.3-3.9-10.1-3.9c-1.7,0-3.7,0.2-5.8,0.6c-2.1,0.4-3.9,1-5.2,1.8c0.8,1.9,1.3,3.9,1.6,6
		c0.3,2.1,0.4,4.5,0.4,7V83c0,0.7-0.2,1.2-0.4,1.4s-0.8,0.3-1.5,0.3h-7.7c-0.7,0-1.1-0.1-1.4-0.3s-0.4-0.7-0.4-1.4V56.3
		c0-2.3-0.2-4.4-0.6-6.3c-0.4-1.9-1-3.5-2-4.8c-1-1.3-2.3-2.4-4.1-3.1c-1.8-0.7-4-1.1-6.8-1.1c-0.4,0-0.9,0-1.6,0.1
		c-0.7,0-1.4,0.1-2.1,0.1c-0.7,0-1.5,0.1-2.1,0.2c-0.7,0.1-1.3,0.2-1.8,0.3V83C253.6,83.8,253.5,84.3,253.2,84.5z"/>
	<path fill="#394145" d="M378.5,58.3c0,8.9-2,15.7-6.2,20.5c-4.1,4.8-10.2,7.1-18.3,7.1c-8.1,0-14.1-2.3-18-6.9
		c-4-4.6-6-11.4-6-20.4c0-4.4,0.6-8.3,1.8-11.7s2.9-6.3,5-8.6c2.1-2.3,4.7-4.1,7.7-5.4c3-1.2,6.3-1.9,9.8-1.9c7.9,0,14,2.4,18,7.3
		C376.5,43.1,378.5,49.8,378.5,58.3z M366.6,58.5c0-2.4-0.2-4.7-0.5-6.8c-0.4-2.1-1-4-1.9-5.7c-0.9-1.6-2.1-2.9-3.7-3.9
		c-1.6-0.9-3.5-1.4-6-1.4c-2.1,0-4,0.5-5.6,1.4c-1.6,0.9-2.9,2.1-4,3.7c-1.1,1.5-1.9,3.4-2.4,5.5c-0.5,2.1-0.8,4.5-0.8,6.9
		c0,5.6,0.9,9.9,2.7,13.1c1.8,3.2,5,4.8,9.6,4.8c2.3,0,4.3-0.5,5.9-1.5s2.9-2.3,3.8-3.9c1-1.6,1.7-3.5,2.1-5.6
		C366.4,63.1,366.6,60.9,366.6,58.5z"/>
	<path fill="#394145" d="M414.2,80.3c-0.7,1.9-1.4,3.2-2.3,3.9c-0.8,0.7-2.1,1-3.9,1h-5.6c-1.5,0-2.7-0.3-3.5-0.8
		c-0.9-0.6-1.7-1.9-2.5-4.1l-16.2-46.7c-0.3-0.9,0.1-1.4,1.1-1.4h9c0.7,0,1.2,0.1,1.5,0.3c0.3,0.2,0.5,0.5,0.6,1l7.7,23.7l4.9,17
		h0.6l4.9-16.9l7.4-23.7c0.1-0.5,0.3-0.9,0.5-1.1c0.2-0.2,0.7-0.3,1.5-0.3h8.8c1,0,1.3,0.4,1,1.3L414.2,80.3z"/>
	<path fill="#394145" d="M449.5,18.5c0,2-0.7,3.7-2.1,5.1s-3.1,2.1-5.1,2.1s-3.7-0.7-5.1-2.1c-1.4-1.4-2.1-3.1-2.1-5.1
		s0.7-3.7,2.1-5.1c1.4-1.4,3.1-2.1,5.1-2.1s3.7,0.7,5.1,2.1C448.8,14.9,449.5,16.5,449.5,18.5z M448,83c0,0.7-0.1,1.2-0.4,1.4
		c-0.3,0.2-0.8,0.3-1.6,0.3h-7.7c-0.7,0-1.2-0.1-1.5-0.3s-0.5-0.7-0.5-1.4V34c0-0.7,0.2-1.2,0.5-1.4c0.3-0.2,0.8-0.3,1.5-0.3h7.7
		c0.7,0,1.3,0.1,1.6,0.3c0.3,0.2,0.4,0.7,0.4,1.4V83z"/>
	<path fill="#394145" d="M491.3,83.5c0,0.3-0.3,0.6-1,0.8c-2.3,0.7-4.5,1.2-6.8,1.3c-2.3,0.1-4,0.2-5.3,0.2c-5.5,0-9.3-1.2-11.6-3.5
		c-2.3-2.3-3.4-5.9-3.4-10.7V41.1h-7.1c-0.7,0-1.2-0.1-1.3-0.4c-0.2-0.3-0.3-0.7-0.3-1.3v-4.1c0-0.6,0.1-1,0.3-1.3
		c0.2-0.3,0.6-0.5,1.3-0.6l7.6-1.7l1.3-9.5c0.1-0.7,0.3-1.2,0.7-1.5c0.3-0.3,0.8-0.5,1.5-0.8l5.8-2c0.5-0.1,1-0.1,1.3,0.1
		c0.3,0.2,0.5,0.7,0.5,1.4v12.7h10.7c0.7,0,1.2,0.1,1.3,0.5c0.2,0.3,0.3,0.7,0.3,1.1v5.6c0,0.6-0.1,1-0.3,1.3
		c-0.2,0.3-0.6,0.4-1.3,0.4h-10.7v29c0,2.1,0.5,3.6,1.5,4.4s2.5,1.2,4.6,1.2c0.4,0,0.9,0,1.6,0c0.7,0,1.3-0.1,2-0.2
		c0.7-0.1,1.4-0.1,2.1-0.3c0.7-0.1,1.3-0.2,1.8-0.3c0.7-0.1,1.1-0.1,1.3,0c0.2,0.2,0.3,0.5,0.4,1l1.1,6.4
		C491.3,82.8,491.3,83.2,491.3,83.5z"/>
	<path fill="#394145" d="M539.6,79c0,1.6-0.6,2.7-1.9,3.3c-1.5,0.7-3,1.2-4.8,1.7c-1.7,0.5-3.5,0.8-5.3,1.1
		c-1.8,0.3-3.6,0.4-5.3,0.5c-1.8,0.1-3.5,0.1-5,0.1c-4.4,0-8.1-0.4-11-1.3c-2.9-0.9-5.2-2.1-6.9-3.6s-2.9-3.3-3.5-5.3
		c-0.7-2-1-4.2-1-6.4c0-2.3,0.4-4.6,1.2-6.8c0.8-2.2,2-4.1,3.8-5.7c1.7-1.6,4-3,6.8-4c2.8-1,6.1-1.5,10.1-1.5h11.2v-1.7
		c0-1.3-0.1-2.4-0.4-3.5c-0.3-1.1-0.8-2-1.5-2.8c-0.8-0.8-1.8-1.4-3.1-1.9c-1.3-0.4-3.1-0.6-5.2-0.6c-2.3,0-4.7,0.2-7.4,0.6
		c-2.7,0.4-4.8,0.9-6.5,1.4c-0.7,0.2-1.3,0.2-1.6,0.1c-0.3-0.1-0.6-0.5-0.7-1.1L500,36c-0.3-1.1,0-1.8,0.9-2.1
		c2.8-1.1,5.9-1.8,9.2-2.3c3.3-0.4,6.5-0.7,9.4-0.7c6.9,0,12,1.5,15.3,4.6c3.2,3.1,4.9,7.5,4.9,13.4V79z M527.8,60.2h-9.6
		c-1.1,0-2.3,0.1-3.6,0.2c-1.3,0.1-2.5,0.5-3.7,1.1c-1.2,0.6-2.1,1.5-2.9,2.6c-0.8,1.1-1.1,2.7-1.1,4.7c0,2.9,1,4.9,2.9,6
		c1.9,1.1,4.5,1.7,7.7,1.7c0.5,0,1.1,0,2,0c0.8,0,1.7-0.1,2.6-0.3c0.9-0.1,1.9-0.3,3-0.5c1-0.2,2-0.5,2.9-0.8V60.2z"/>
</g>
<g>
</g>
<g>
</g>
<g>
</g>
<g>
</g>
<g>
</g>
<g>
</g>
<g>
</g>
<g>
</g>
<g>
</g>
<g>
</g>
<g>
</g>
<g>
</g>
<g>
</g>
<g>
</g>
<g>
</g>
</svg>
